hd.kino-go.fit
alignmediaplay.win
xn----stbekgtf7ec.xn--p1ai
turokstar.org
www.betcity-nxzn.space
rotatemediafail.win
mbetrotateshow.top
s1406988264.newtracker.rip
kinok.site
mosttbeet011.xyz
notjhing.top
www.mycoolmbet.win
s2.skladchik.bz
moosttbet0xcl9.xyz
alcoline.business
ds255.v-s.mobi
anarhia.club
262002.okah.top
www.filmy-1080.online
lamafilm.hdrezka-870.site
ww.cwer.life
1.tnt-premier.site
www.miniclips.pk
films2.club
rotabmbetshowup.top
com.win-now.co
kinogon.online
sbd728.hdreactor.club
mosttbetcl45.xyz
rotatemediacomplete.win
www.08023.es
xn----8sbbrm1beidwj2c9b.xn--p1ai
rotatenewsplay.win
s94871866.newtorrent.rip
ww3.hdreactor.club
stm24.biz.24klad.shop
mostbattu.xyz
me.lordsfilms-1080.top
1xudmo.space
kaluga.
admin-us.hdreactor.club
azino777zerlalo67.space
superkanal.k1no-777.site
www.1coolbkfastmbet.win
refpaibidn.space
refpaxppto.top
www.redstarcasino04.eu
mosstbetf.xyz
lunakino.zfilm-1080.cyou
hd.kinodom.club
parxent.top
gov.hdreactor.club
refpawnnxp.top
www.xn--80aodfsg.live
spark.zfilm-hd777.monster
rotatemediateach.win
www.werbstatt.at
mostbbat80.xyz
hd720.video.az
store.cs.hdreactor.club
kino-nline.zfilm-hd-731.cyou
kinogood.zfilm-hd.icu
vpn01.hdreactor.club
refpasaweb.top
digitalmetrics.es
kinomask.vip
sexokmr.love
mbetrotatecarry.top
rotatemediahold.win
xn--11aaa.skladchina.biz
www.zfilm2-hd.life
mostopsbetr37c.xyz
refpaeenri.top
lostfilm.zfilm-online.site
lordfilms-s.zfilm-hd-2366.online
mosstbu.xyz
eatmediaplay.win
refparftcc.top
www.vipbox.live
ineed.es
hdrezka.zfilm-hd-731.cyou
rotatembetseason.win
www.godeaf.co
mossstbat3lt.xyz
refpaihmefht.top
www.5dimes.eu
mirror326.graniru.info
vulkan777vrsupcasino.info
torrent-base.org
mum.gov-ceb-t.top
msk10.24h.sex
www.r.new-rutor.org
mikromarkt.eu
poldnic.in.ua
toprekord.club
casino777winv.info
hd24.ws
ww1.lordfilm.ltd
mirror296.graniru.info
venera.ws
mbetfryplay.top
www.extremetv.video.az
vulkan-igrovoy2.club
bluray720.gov-bac-t.top
actionfilm.gov-ceb-t.top
www.himera.pro
playdom-official2.win
rotatemediaway.win
xn--i1a.hdreactor.club
arhead.info
sex2.sexonn.love
refpaitqsh.top
multiki.720-hd.icu
sbd610.hdreactor.club
www.51slot.ru.
bookmark.xxx
rbshop.vip
mosttbeet044.xyz
mostopsbetr36c.xyz
xn--80ab0abkkqt8g.xn--p1ai
rotatemedialose.win
mbetrotateinclude.top
bitrix.hdreactor.club
spravki.website
x29.czx.to
mostbattr.xyz
jetspinkazino.info
shadowmarket.vip
24bot.space
lostfilm.lamafilm.top
www.planetofbets.co
green-submarine.nl
www.volcano-club.co
refpaefyzf.top
downtonabbeyserial.zagonka-2423.site
rotabmbetfact.top
www.nubilefilm.xxx
igrovye-avtomaty-joycasino.co
apartforum-ischgl.at
dobrohk3i4g6kbp6.onion.to
store.sql.hdreactor.in
fleshkazino.info
toto.bkfonbet.club
blog.11.hdreactor.in
v6.hdreactor.in
suka24.top
refpaxymjl.top
pwadr.site
rotabmbettitle.top
refpatwuzs.top
cashtop.tel
moosttbet048.xyz
rotatemediasurvive.win
super-besdeps.club
www.procivil.cz
doujin-assets.dmm.co.jp
www.aptekadc.pl
onlinebarba.xyz
sexoprm.red
rotatestudentplay.win
refpaaixic.top
medknzhkii-tula.top
a.semenarniya.live
azino777.in
mostbatot.xyz
mossstb6atlt.xyz
online-spravki.info
prostitutkitambovagid.top
d.bordeli.biz
www.lurkmore.to
best-offers.pro
mirror206.graniru.info
mosttbetcl50.xyz
livedoor.sp.blogimg.jp
dep-slot3.info
www.mortal-kombat.video.az
vkid.shop
www.sonuncu-feqil.video.az
pornohype.gidonline-2696.site
7224.svetacdn.in
www.1strongbkmbet.win
ex.robpay.org
www.betway.com.gh
bbt777-biz.mdma.city
rutor.ultraproxy.org
refpaaccnw.top
sbd841.hdreactor.club
top.go2me.top
i.cannaline.top
sport.video.az
designersinteractifs.space
rotafmbettwist.site
russkoekino.zhd.life
rotaembetapple.site
refpaxzguo.top
novomats.in
www.zenitbet97.win
refpafttaa.top
fundacioboscos.org
264.video.az
mirror141.graniru.info
freedrivernet.info
betting.link2.betcityru.club
namsonland.vn
www.hdtubemovies.xxx
www.online-games.co
www.generalfilm.website
magento2.dnews.hdreactor.in
www.botan.or.jp
refpafkxgm.space
top.kinoteka.life
magento.b01.hdreactor.in
mbetrotateimprove.top
flashmediaplay.win
biozone.com.ar
moosttbetxcl10.xyz
bbk.sdnmoviess.biz
n.vsespravki77.info
rotatemediasingle.win
synergy-hair.jp
www.lonvatn.video.az
lamafilm.hdrezka-1935.site
gamezonline-sol.site
natco24.site
litecoin.club
hydra.cafe
24volcano.club
www.ekspresi.video.az
1plus1tv.zfilm-zfilm.club
onlinemama.xyz
kupit-snjus-barnaule.site
sex.prostitutkiulyanovska2021.info
dvd.lordfilmtv.vip
pravoholding.ru
www.dostavka-alcoholl-mosk3.site
i.piccy.info
ukranews.life
clubfaraon.bet
s2151984721.newtorrent.rip
1be316895c0ce83897.c2ef25.a2341e99d0a2f2982f.xyz
mostbetprilend32.xyz
azino777.org
xn----7sbfmr1adiv9a.xn--p1ai
vdagestan.info
photofirst.ca
showjet.kinokrad-hd.cyou
rip2.ultradox.top
viagravtomske.online
www.dila-hanim.video.az
refpaynttk.top
www.ebaka.live
www.osesturkiye.video.az
www.directbet.eu
kinogo.lordfilm-3012.site
locator.com.mx
buymbetplaywin.top
rotatembetstay.win
moosttbet054.xyz
2.svetacdn.in
longditton.surrey.sch.uk
v13.hdreactor.club
deploymediaplay.win
w2.kinomask.vip
naberezhnye-chelny-kupit-snus.site
x-up.ws
formula55.tj
hdfilm.zfilm-film.club
2016.life
www.vulkan-x.co
kinogo.zagonka-1921.site
kinozal.zhd.life
tv.kinovar.online
rotatemediapunt.win
mostbeth.xyz
e.lordfilm-531.site
interny.zhd.life
wwwx.xrutor.org
alcoshop.kz
good.win-now.co
upcasinovklvulkan.info
azino777jqaupcasino.info
pepigon.site
www.4.hdreactor.club
xn--6-9sbdy1aarccvh.xn--p1acf
on-off-on.lostfilm-hd.icu
pixta.jp
devki.cyou
1plus1tv.hd-zfilm.cyou
voronezh.
www.baskino.top
privat.gidra-market.club
nsk-doctavca154.site
mbetrotategoout.top
up3.win-now.co
moosttbet0xcl32.xyz
ceo.video.az
partukazino.info
www.moneymd.club
www.audiofriend.cz
shortlink4.click.ltm.bkfind.space
loto-ru.club
v44.hdreactor.club
acasino.kz
animego.zfilm-zfilm.club
chernoezerkalo.zagonka-2423.site
www.marathonbetstyle.win
ed37feb836d1265a2c.c2ef25.a2341e99d0a2f2982f.xyz
refpazfalz.top
rotatemediathree.win
blog.ci.hdreactor.club
tsk.bthaha.stream
mirror120.graniru.info
m.comodessa.video.az
sbd167.hdreactor.club
dosug25.org
sbd286.hdreactor.club
www.enpas.com.tr
2021-kino.fun
chernyahovsk.prostitutki.store
www.manosveikata.lt
moos24toobetcob.xyz
s771793973.newtorrent.rip
files.fajno.in
shopnsp.org
lr-club.pro
rotaambetleave.top
inox.by
mosttbetfax4.xyz
s1607844333.newtracker.rip
cazino-faraon.co
mbethugplay.top
mbetrotatewait.top
zanoro4ka.site
refpabwjtu.top
traditioncasinos.co
mosttbeet019.xyz
www.csap.org
animal-farma.fit
cardex.city
cinema5.zfilm-hd.club
store.live.hdreactor.in
likeporno.vip
amendmediaplay.win
www.goandplay.club
v37.hdreactor.club
pusyaaa.dip.jp
mirror280.graniru.info
avtomati-besplatno.online
www.bkolimp.kg
lostfilm.zhd.life
xeberfakt.az
yummyanime.kinokrad-hd.cyou
blog.blog.bbs.hdreactor.in
moosttbet0xcl31.xyz
dahserial.gov-bdj-o.top
casino-888.host
upcasinocwnvulkanclub.info
onlinebaraban.xyz
rotateaudienceplay.win
freespinsgratis.info
rotatestateplay.win
x-casssino.org
gramm45-biz.mdma.city
onl.3zfilm-hd.site
rotabmbettell.top
natco24.website
mbetlugplay.top
samara1.via-shop.store
forum.bakililar.az
minkute.top
batsa.top
refpattnao.top
pantera.uno
blackchippoker.eu
hideme.be
alco-magazin001.site
www.porkabab.mobi
www.get-rc.to
test.pma.hdreactor.in
one.24video.click
vid1569503340216.tehranvd.biz
kinobon.fun
hd-advertology.zagonka-1368.cyou
betcityrus.top
www.paqramparca.video.az
torlock.unblockit.buzz
tv1000ruskino.kinogo-hd.icu
rotaembetlight.site
sexytimermegtraff.xyz
chamsko.pl
kupit-snjus-ekb.site
carrymediaplay.win
httpwww.hdreactor.club
kinopod.zfilm-hd-1632.online
novosibirsk.
open2.site
playtowincasinos.co
mostbbat79.xyz
mossstberet.xyz
refpamlpmy.top
w.shama24rc.biz
www.zenitbet147.win
chasykazino.info
www.rtrue-detective.video.az
klipzona.site
sosochki.club
shop.xn--g1a1a.hdreactor.club
arbitrazhstavki.xyz
rotatemedianame.win
rionews.in.ua
refpaxmyto.top
hrfor.info
eyeofgod.info
www.kurtlar-vadisui-pusu.video.az
www.songatak.website
cdn.pururin.io
mosttbetxcl38.xyz
mosttbetxcl16.xyz
crazy-video.info
orenburg.kupit-snus.site
www.onlineroulette.com.au
bondkazino.info
tapmediaplay.win
orca88-kazino-bonus-po-vaucheru.topsfree-bonusy2018.info
i-obmen.biz
yeyeyetraff.website
azartnie-igry.online
www.pornoxporno.pro
rotateartistplay.win
refpahpvyi.top
rotatetechnologyplay.win
chizg.biz
chek-shop.site
xn--t1ao.hdreactor.club
upcasinoptjazino777.info
moskwa.doc-avto.life
fixiki.gov-bac-t.top
mirror306.graniru.info
292.hdreactor.in
cvv.sg
xn--80aab4aajqiinp2bu1e5ch.xn--p1ai
vidmoon.co
blog.blog.wwwss.hdreactor.in
develop.hdreactor.club
1080-hd.gidonline-2268.site
sbd408.hdreactor.club
shop.lovetab.biz
baskets.video.az
saratov-snus-kupit.site
sports7.hdgo.site
expres.life
yaporn.video
sept14.lostfilm.lol
sale.9203336.site
rotacmbettry.site
prostitutkikemerovoonline.info
uyjk.hdreactor.in
mostbatta.xyz
regwow.casinox.casino
diplomas-shop.top
www.desertcart.com.kw
rotatemediascore.win
ucurum.video.az
serialitut.bid
img2.rule34.us
mosstbetw.xyz
e-passion.club
www.mygocasino.eu
mostbet777bo59nus.xyz
azerbaycanca-dublyaj.video.az
www.kq6b.video.az
naslediepredkov.info
rotateadvertisingplay.win
airmbetplayluck.top
mosttbet036.xyz
rotatemediafoul.win
m.blog.hu
giftsplay.info
www.onlinebkmbet.win
eltural.video.az
rotabmbetscore.top
refpaeuvea.top
vdcdn.site
azartnie-igry.co
rotagmbetcap.site
mbetzipplay.top
spb3.nightlady.eu
ustav.top
ru2.azino888.win
720-720.lamafilm-hd.monster
torrent.hdrezka-2069.site
russ.kupit-attestaty.biz
mostbet777bon12us.xyz
mbetrotatepoint.top
mossstba2tlt.xyz
kazinoxuz.info
zhitomir.top
win1.go2me.top
kinohod.zfilm-hd-zerkalo-666.site
refpacdgne.top
go.kinogo.win
v69.hdreactor.club
mail1.hdreactor.club
www.yutobe.video.az
spravki.co
110.tvmovies.in
torrent-update.zfilm-zfilm.club
1080-online.hd-lostfilm.site
kriminal.ml
raj-fruit.pl
shaman24.biz.24klad.shop
teencam.top
rotatemediaoutplay.win
bbiz.chat
62.tvmovies.in
www.disapora.video.az
refpapjurz.top
upcasinokkvvulkanclub.info
eagle-jack.jp
refpasmmsv.top
orca88-casino-bonus-kod.frebonusy2018.info
test.clubwww.hdreactor.club
ru-betcity.top
darkhatworld.space
refpavnlbs.top
ruski.radio.cz
i.apteka-medika.info
diplom-groups.vip
api1628256934.tobaco.ws
57.hdreactor.in
jmqzh.top
dimeline.eu
porogy.in.ua
lordfilmz.club
film-tor.top
mbetrotatebattle.top
wordpress.1.hdreactor.club
rotatemediatalent.win
rotabmbetcase.top
obninsk.prava.monster
upcasinouxuvulkan24.info
membetplayluck.top
refpabedwe.top
archive.is
kazinopiter.info
netso24.city
zalivcard.website
22rc.biz
rotabmbetscript.top
ilovecams.club
kino-history.hd-lostfilm-777.site
superseeds.cz
mbetrotateupset.top
k1no.zfilm-hd-576.online
mbetskipplay.top
mosttbetxcl45.xyz
the-umbrella-academy.720-hd.icu
mostbet777bo14nus.xyz
bot.filmhd-1080.cyou
refpaibjfrfq.top
rotabmbetlove.top
mbetrotateattend.top
sbd878.hdreactor.club
1080.2zfilme-hd.xyz
baku.video.az
www.marathonbetmore.win
refpamwkhi.top
russia-720.lordsfilms-1080.top
livefilms.fun
refpazwruu.top
brandbase.life
on.salw.site
www80.sakura.ne.jp
www.baltplay2017.space
mult-porno.pro
zhitely.info
galleria.net.vn
devilmind.club
kinogo.gov-ceb-t.top
luvr24.biz
mosttbetcl48.xyz
big.film.kinobaza.site
vid1569503459846.tehranvd.biz
multtyavka.hd-lostfilm.site
casino.bet365.es
kinogo.unblocksite.in
mops.team
hd-deti-online.zetflix-biz-z.site
mostbatto.xyz
blog.magento.ssh.hdreactor.in
kino-tracker.org
hd.gov-bxd-q.top
videa.ekranka.live
vulkan-games.co
kinoprofi.club
kurgan.kupit-snus.site
upcasinoypiazino888.info
rotatepeopleplay.win
xn--35-6kc8bky9eya.xn--p1ai
lostfilm.intorrents.monster
rotatemediafreethrow.win
grand-azino.biz
hd-parnuha.zfilm-hd-731.cyou
mosttbetclub1.xyz
rosserial.zhd.life
binh.co
land-accords.org
starfox74.biz
w23.lordsfilms.life
www.permanent-magnet.org
toptorrent.site
my-kino.ga
youtube.video.az
sbd928.hdreactor.club
www.kufrtlar-vadisi-pusu.video.az
www1.thepiratebay3.to
kinogo.unblocked2.party
ru.baku.ws
playslot.com.ua
landingpagesn.xyz
x-cassino.org
intv.club
rotaembetbread.site
www.hardmusicbase.cz
b.intimledi.biz
hd-fixiki.hd-lostfilm.gay
www.betsbc-nizd.space
mostbetprilend46.xyz
www.rabotaklad.biz
majorji.top
shop.23.hdreactor.in
kinogo.unblocked2.vip
phpmyadmin.magento.sql.hdreactor.in
720.lamafilm-hd.xyz
mir-sexa24.site
kino-slovo.hdrezka-1018.site
rotatepressplay.win
wioedj.new-rutor.org
www.hakim.video.az
www.watchanime.video
piratebuhta.co
555.porn
server1.intermedia.ge
mbetrotatethat.top
hd-megamult.2020-film-l.site
kinogo.uproxy.help
29.hdreactor.in
xn--pa5k.hdreactor.club
lordfilms.lordfilm.wine
mossstbemet.xyz
kinogo.siteunblocked.vip
rotatemediagiveup.win
kinomo6.xyz
cardingforums.ws
topkino.kg
www.rutorc6mqdinc4cz.darknet.to
rotateunionplay.win
bobsburgers.hd-lostfilm.site
casino1vulcan.club
rotabmbetget.top
www.xxxgirls.pro
p.trudva.pro
govnofilm.info
obnaldeneg.space
mbetrotatedo.top
gorizontcinema.zfilm-hd-628.online
moosttbet09.xyz
winklerpolice.ca
on-off-on.hdrezka-870.site
blog.old.httpswww.hdreactor.in
nomerorg.biz
www.mrthbetting.win
med-knizhci.co
krick.com.ua
kinosimka.unblocksite.biz
filmshouse.gov-bxd-q.top
hdd-tv.intorrents.top
lyrics.lol
zfilm-hd.2021-film.site
onlinemultfilmy.zagonka-2423.site
www.eventa.us
www.24casino.by
hd-ugra-news17.zfilm-1080.cyou
grimm-serial.zfilm-hd.site
prostitutki.website
www.test.video.az
mirror484.graniru.info
blog.blog.dev.owa.hdreactor.in
7720.svetacdn.in
forum.ganjalive.tk
www.baraban.org
axi.video.az
maxslots.top
mirror1.mirrorolimp1.xyz
hd-kino-nline.k1no-z.site
rotatembetmatch.win
hd-28kino.k1no-z.site
30.hdreactor.in
refpajeouc.top
www.dance.video.az
ekb.mobillo.pro
rutor.unblocked.monster
rotatemediastreak.win
mbetrotatefirst.top
refpakrkuj.top
freeporno.xxx
vid1570712830116.tehranvd.biz
fast-torrents.lamafilm.top
tumen.prostitutki.surf
club-vulkan-online.co
refpajzadq.top
docki.biz
hd-igroutka.zfilm-zfilm.club
kazinozlo.info
rock-cafe.club
www.etopaz.az
carder.pk
www.ru-steroid.site
medspravku-krasnodar.top
3579.videocdn.ca
pro100azart1.pw
wanaction.jp
www.slots.cafe
bordcash.click
19a28afc60863a378f.c2ef25.a2341e99d0a2f2982f.xyz
lordfilms-s.hdrezka-2697.site
rik911.club
store.d.hdreactor.club
refpahphzg.top
hd-kinodron.hd-lostfilm-777.site
a.msk-devki.info
z.hdreactor.club
bimag.pp.ua
jokerfarma.vip
mosttbetxcl47.xyz
lesnoy.tv
rutor.iproxy.help
m.sbdrybnicky2.cz
xn--e1aggfgdbaf2c2a8ae1b.xn--p1ai
hd-torrent-z.torrentfilms-z.site
cshg.org.cy
www.tojbet.tj
kopi.glubokim.zapase.video.az
msk14.prostitutki.xxx
5mins.eu
tpgek.top
mbetpr.win
33.tvmovies.in
mostbbat9.xyz
bishkek.adiso.kg
store.login.hdreactor.in
mirror341.graniru.info
www.o-ses-turk8ye.video.az
lordkino-hdz.lordfilm.gd
bbt777--biz.mdma.city
refpajcfkg.top
soft-portal.club
golos-rus.hd-lostfilm.site
mbetrotatemovie.top
refpagdfzg.top
gay.looo.ch
mosttbetfann3.xyz
www.bilim.video.az
filmaghd.xyz
refpanqntn.space
store.us.hdreactor.club
www.rubezh.eu
mostba4tlt.xyz
rightloveqoyz6ow.onion.ws
torpeda.press
s.hdreactor.in
tvseriya.lamafilm.top
play-fortune.top
kino-history.zfilm-hd-132.online
club-wulkan.pro
chaturbate.eu
refpaputme.top
nextmbetplayluck.top
lostfilm-hd-3012.site
refpaumszm.top
refpayyven.site
millionkzn.club
s3156253021.torrent-tracker.pro
fdg543d.bid
animalfilms.hd-lostfilm.site
dev.b.hdreactor.club
hd-animalfilms.zfilm-zfilm.club
online-720hd.lostfilm-hd-1359.site
go.win-now.co
ww1.kino-krad.fun
forum.dublikat.club
tv.hdseria.vip
www.idrisheyderli.video.az
marapromo.win
setiol.top
trending.network
www.intim-club.pro
refpakbvbq.top
www.baltplay2018.online
verhentai.top
cush777.biz
b2.x-film.top
refpaywwqs.top
ru.diplomoscwa.club
spravcy-on.co
redclub.cz
igrat-avtomaty.club
kursk3.hotxxx.mobi
grimm-serial.rezka.icu
mbetflapplay.top
fixiki.zhd.life
newseries.zfilm-hd-798.online
mirror480.graniru.info
0.hdreactor.club
kazinocherte.info
ambarcinema.lordfilm-2696.site
www.zenitbet166.win
static.f95zone.to
sbd967.hdreactor.club
novostiua.news
casinoplays.space
old.33.hdreactor.in
refpahudkc.top
turkish-tv-series.lordfilm-3040.site
hd.pumafilm-hd.buzz
uat.hdreactor.club
win.kinogo.win
www.bbsport.xyz
53.hdreactor.in
kinozoom.newserial-666.site
www.z.hdreactor.club
refpadcaqo.top
nokia.video.az
dolgoprudnyy.prostitutki.store
souzmult.gov-bxd-q.top
vegasdayscasinos.co
evolvemediaplay.win
collegeporn.xxx
kinopod.zfilm-hd.site
refpaovbat.top
refpanaqum.top
24vulkano.biz
on-off-on.gov-bac-t.top
v8.hdreactor.in
zwarries96.co.za
pornk.top
wholesd.top
hydra-onion.co
chaschina1.top
www.bkmbetros.win
www.devochki.cz
wm-bingo.biz
relax-centrum.info
shockmodels.cz
synergy.group
hcv.sofostore.shop
rotagmbetbread.site
m1.skladchina.in
nizhny-novgorod.top
fhn.vision.video.az
www.zenitbet171.win
rotaambettry.top
upcasinorqmvulkan777.info
lostfilm.zfilm-hd666.monster
melkhuisje.be
mirror376.graniru.info
refpahszwh.top
s612739776.onlinehome.mx
megafon.gov-bac-t.top
1080hd.hd-lostfilm.site
casino-x.icu
mirror458.graniru.info
www.the-killing.video.az
tpb.news
www.bbsport2018.club
slotoking1.info
refpatzbik.top
hd-28kino.newserial-666.site
filerio.in
n.mir-spravok.club
kazinofallout.info
refpatudfi.top
me.lamafilm-720.monster
www.betfaironline.eu
onlinemultfilmy.zfilm-hd1.icu
kinogo.uproxy.red
www.sportingbet.co.za
ing.hdreactor.club
kino.fantomas.club
www.nijioma.blog
kupit-lyft-snus.site
m.zhd.life
casino-bet.club
startgames.club
prostitutki-nsk.club
1.filmi10-2021.club
refpaqapqx.top
archive.ph
hd-lordfilm.1lordfilms3.club
torrentinka.zfilm-zfilm.club
procrd.li
moosttbetxcl52.xyz
magento2.3.hdreactor.club
www.happymarathonbet.win
a.38fm.top
refpaomwfy.top
www.mrthbetbets.win
mosttbet030.xyz
onlinebatyanya.xyz
hd-720.online-filmes.top
0.hdreactor.in
gepatitis.cf
rotatemediaputt.win
rotabmbetserve.top
friends-online.hd-lostfilm.site
center-club.ws
free-rutor.eu.org
rotatembetupset.win
sochi-snus-kupit.site
bonuscraft.website
pokerdoma.network
newsxoroshie.top
rotatebankingplay.win
seoporn.club
mbetrotateshot.top
