bugulyma1.prostitutki.store
kuritelnyi-smesi.com.uvds222.active24.cz
official-texosmotr.site
lostfilm-hd-2765.online
refpadqdvzof.top
mirror1.olimp24x7.online
hot-voronezh.info
prostitutkiorehovozuevoget.info
xn--74-1lcijbtc.xn--p1ai
rotatembetrun.win
camwhores.io
hhand.dreamwidth.org
kazinokorabl.info
blogs.mobile.namba.kg
marvel.720-hd.icu
ekaterinburg.kupit-snus.site
video-srv.site
starbqh2vfi64nzx.onion.to
good-novost.top
yzpbp.site
zfilm-1080.zfilm-hd-1287.club
odcrisis.in.ua
www.redstarpoker06.eu
top.24video.click
www.hentaicomics.pro
kinogo.theproxy.help
www.bosscasino.eu
www.vulkanclub.top
shop.service.hdreactor.club
rotacmbetknow.site
www.vizontv.video.az
europekazino.info
rotaambetlead.top
ukk24.pro
miniclips.pk
azino777-ak47q.info
www.kurtlar-vadisi-puksu.video.az
f1.hdreactor.club
refpapdgwg.top
marianne.click
wrapmediaplay.win
filmaghd.online
gitely.rosfirm.info
rotabmbetstar.top
www.mbetnice.win
hd-vipplay11.zfilm-hd-731.cyou
kino-ussr.zfilm-hd-3021.online
mosttbet028.xyz
refpapiaeb.top
blog.store.22.hdreactor.club
odia.sex.video.az
mosstbetj.xyz
politsovet.in.ua
mostbetj.xyz
torrentinka.zfilm-1080.cyou
jbmekanix.be
g.darsex.club
www.fonbet.click
magento2.916www.hdreactor.club
space.dublikat.shop
lostfilm-hd-2210.online
nn.hdreactor.club
cas.54abe7.olimpa0c1.top
vladivostok-1.gbhdf.prava-online.org
mega-mult.zfilm-hd.icu
nimfomanki.pro
refpaakwsd.top
rutor-is.uioz.fun
www.5gp.by
clientdatabase.info
mosttbetxcl19.xyz
kinogo-hd.space
mbetplaywinup.top
refpaxvbcn.site
renewableenergy.go.ke
www.mthnbt.win
1.ginonet.shop
hd-ivi.hd-lostfilm.gay
derevho.in.ua
xn-----7kcoipotzhedc9g5cs.xn--p1ai
mirror522.graniru.info
mdymw.top
tula-kupit-snus.site
www.awesomembet.win
www.sonubcu-fesil.video.az
kino-kadr.hdrezka-2697.site
v1m2v3.xyz
vcespravci.co
kkukish.live
aleralvi.diarynote.jp
animalfilms.zagonka-1368.cyou
refpanvogw.top
moosttbet025.xyz
www.hannibal.video.az
polit.icu
hdrezka-610.site
a.mensgen.click
refpanwevm.top
images.eoswetenschap.eu
refpaqekam.top
rotabmbetreceive.top
army-news.site
mosttbeet07.xyz
kino-krad.fun
ufa.doc-avto.monster
mostbbat35.xyz
hd-kino-brigantina.zfilm-1080.cyou
hd.oqno2.top
spinmediaplay.win
6657.svetacdn.in
hd.lordsfilms-hd.top
vid1569139241183.tehranvd.biz
blog7casino.info
zupload.ws
s1504248172.torrent-tracker.pro
hydrarucxzpnew4af.vip
savas.meydani.video.az
lamafilm.kinokrad-hd.top
dev.https1.hdreactor.club
diplom-mastaks.vip
xn----7sbajbqayjqhat3f1c.xn--p1ai
kinogogut.site
stadall.link
101zabava.club
life.informator.press
kazinorocks.info
baskino-2021.uno
seasonvar.top
twirlmediaplay.win
partikazino.info
k1no.zfilm-hd-936.online
syzran.mifepristone-apteka.info
www.baltplay2017.site
azinorzfupcasino.info
brandbase.pro
kinogo.gov-bbs-y.top
refpamfzdo.top
www.luxreplica2017.club
video-one.life
fixiki.hdrezka-870.site
moosttbetxcl26.xyz
mbetrotateleave.top
kardesler-takimi.video.az
refpayhbip.top
athleticpharma.site
mosttbetxcl4.xyz
www.kurtlar-vafdisi-pusu.video.az
refpawxvrj.space
ibsearch.xxx
kinoor.website
animestars.kinokrad-hd.top
kazinocrystal.info
sports365.hdgo.site
refpaqfkor.top
kdayl.top
cigastore.shop
sbd334.hdreactor.club
hqpornvideos.xxx
refpanpcpv.top
prombetplayluck.top
atteiongb.top
mbetswapplay.top
mercadoescritorio.birdy.studio
rotatembetreturn.win
www.onlajn-kazino.info
rotatemanyplay.win
baskinohd.gq
mostbatut.xyz
refpadswtv.top
nizimaturi.blog.jp
refpawvlug.top
blog.qa01.community.hdreactor.in
myfuturama.zhd.life
video.zhykrecords.biz
hd-kinofilms.zagonka-1368.cyou
nomer-org.life
mbetrotatemake.top
xuyhack.space
rockbetcasino.co
24pharaon.bet
spark.hd-lostfilm.site
kinomo5.xyz
lyublyukazino.info
dc.hd-lostfilm.site
a.yakutsk.rus-putanas.info
xxxporncomics.info
kinogood.gov-bac-t.top
kinolife.biz
gg26.bet
vulkan.site
turk-russia.online
bbaccess.club
interny.zfilm-hd-242.online
clipzui.info
refpalktne.top
gost24-biz.mdma.city
a.sexgid.club
prostitutkikostromyonline.info
u1093239638.v1.hdsmotrihd.top
www.baltplay2017.pro
rotateretailerplay.win
w.sluhai.club
refpavoexw.top
bhf.im
refpasldpy.top
mosttbet046.xyz
www.betcity-pdsh.space
allplay.live
vid1568970652716.tehranvd.biz
unravelmediaplay.win
grenfin.eu
24film.site
xn----stbmnf3a1bzb.xn--p1ai
nicktube.org
demo.31.hdreactor.in
hd-cadelta.zhd.life
inter-info.xyz
refpaomlpr.top
vegascasinoonline.us
adamshop.org
hd-kinometro.2021-film.org
www.bet555.gr
kinofann.hd-lostfilm.gay
mostbbat23.xyz
archart.info
rotabmbetcomplete.top
verotikehd.biz
b.intimcity.nl
i.i9i9.to
onl.zfilm-hd2.site
www.drakecasino.eu
mostba8tlt.xyz
www.kurtlar-vadisl-pusu.video.az
ru.casinoblobal.info
33.hdreactor.in
rubk.info
www.sexi.video.az
q.zagonka-1857.site
emers2vscspkbocj.onion.to
casinosamp.info
s3164786419.torrent-tracker.pro
blog.test.fwww.hdreactor.in
hd-animalfilms.zfilm-hd-1287.club
www.pokerit.eu
kinoyurco.hdrezka-870.site
d.intimcity.nl
mosttbet06.xyz
nextroid.ws
hyd5.tor-rc.space
kino-ussr.zfilm-hd-915.online
animedia-company.gov-bac-t.top
mostbetn.xyz
9.thro.bz
old.namba.kg
sbd457.hdreactor.club
mostbexm.xyz
samara3.24h.sex
full-hd.zfilm-hd666.monster
moosttbet029.xyz
lis4.ga
refparangk.top
mbetrotatecompete.top
www.nghmaty.club
pro100casino.info
kproxy.in
ci.hdreactor.club
hd-kinohod.zfilm-hd.site
rotatembetknow.win
old.cp.hdreactor.club
sotreport.kz
qwerty.hdrezka-2697.site
onlinemultfilmy.hdrezka-1406.site
refpayqygs.site
winmbetbest.top
casino-x.life
women.storeofshoes.club
v12.hdreactor.club
birdtrack.seo.org
www.betflash.co.za
73475ujjewjj4r43423t2e.sdnmoviess.biz
rotatemedialayup.win
off24-biz.mdma.city
teenlove.al
rotacmbetwatch.site
refpahdzvx.top
xn--80aac1bqafikkb.xn--p1ai
mysql.api.hdreactor.in
jbxzg.top
volsk-18.doc-avto.info
xn--80ahcnkif5a8a.xn--p1ai
naberezhnye-chelny.prostitutki.black
rotateothersplay.win
www.briqada.video.az
www.kurtlar-vwdisi-pusu.video.az
hd-lordfilm1.1lordfilms3.club
xcasino.club
012005.trailerok.top
hd2.kinoprofi.club
club-vullkan.co
hd-720-hd1.zfilm-720.club
atv.video.az
technologies.work
turkish-tv-series.2zfilm-hd.life
cdn3.video.az
gerki.ws
hd-24film.zfilm-1080.cyou
toptoptoptraff.xyz
rotatefanplay.win
mostbetprilend17.xyz
all-free-filrns.org
www.awww.video.az
kino-o-voine.lordsfilms-1080.top
xn----7sbbcuabffr8as9ahnz4li.xn--p1ai
ruseeds.one
1.kinodivo.site
rotatemediareceive.win
www.zenitbet150.win
belmassa.store
master.kset.kz
vcevod.click
torrent-z.zfilm-zfilm.club
refpaizxqs.top
lordfilm.live
mostbbat32.xyz
www.hollywoodsportsbook.eu
refpagcyld.top
vbzvir.best
refpabaffs.top
v16.hdreactor.club
via-shop.store
lostfilm-hd-2608.online
otsos.cz
vse-chasti-filmov.gov-bqn-h.top
pozitivchik.site
s3.goodfilm.top
gold-cup.news
12.hdreactor.club
rotatemediastuff.win
topzalil.website
s20.skladchina.in
russia-720.lordfilms1.top
angelbags.life
75.tvmovies.in
egrn.org
manosparnai.lt
millionb.club
karusel-tv.hd-lostfilm.site
lostfilm-hd-269.online
hydra.coach
ru.peptits.shop
ww2.t1pochek.site
o.online-spravki.club
zaycev.site
polit.in.ua
newseries.zfilm-hd777.monster
cinema5.gov-bac-t.top
breaking-bad-online.rezka.icu
mbetsidebar.win
mbetrotatedecide.top
sefan.men
lordfilmtv.vip
www.presentnews.biz.ua
rotatemediago.win
giasl.es
persalhn.top
n.hdreactor.club
vkinoteatre.lostfilm-hd-2571.online
kinozal.in
med-atlas.info
mostbatty.xyz
kino-zek.online
narcopride.tk
d.nightlady.eu
www.bbplay2017.xyz
u389240949.v1.hdsmotrihd.top
refpannozu.site
store.network.hdreactor.club
www.zenitbet169.win
spichka.news
kinokino.ml
hd-amurkino.lamafilm.top
x27.czx.to
272004.monna.top
ru.kupit-attestaty.biz
rezka.zfilm-hd-948.online
mbetrotatehole.top
prsideolt.top
kemerovo.mifepristone-apteka.info
b11.skladchina.biz
web.horde.to
x22.czx.to
rotaembetbook.site
guamstyle.es
www.odesssa.video.az
mbetrotateteach.top
64.tvmovies.in
omsk.online-snus.site
4181def1af1b3b4191.c2ef25.a2341e99d0a2f2982f.xyz
kinopod.zfilm-hd-1149.online
prostitutkikemerovoxx.top
mostbbat36.xyz
cazino-online.club
download.gg
simki.net.by
vid1569333012636.tehranvd.biz
chochox13.mobi
11www.hdreactor.in
mostbetl.xyz
mbetrotateenter.top
c.msk-prostitutki.website
www.casinobonuscodes.live
9.hdhouse.club
sigaretka.biz
www.itbag.to
cinematext.gidonline-1176.site
mosttbetcl7.xyz
mysql.xn--c1aqii1b.hdreactor.in
24zerkali.info
www.0aramparca.video.az
klipzonahd.fun
upcasinoauqvulkan888.info
www.mbetlucky.win
onlain-kino.site
refpamopqw.top
multiki.zfilm-hd.icu
silksdarwin.com.au
n.spravker.club
kinogo.iproxy.help
rotatemediaattend.win
refpafyoqk.top
unikino.zfilm-hd-1442.online
vulkanundupcasino.info
baddy.biz
mirror02.mirrorolimp1.site
blog.proxy.hdreactor.in
refpaavmwo.top
www.interwetten.gr
exglobal.pro
pokerdom-official.online
mostbbat87.xyz
mbetrotatestart.top
hyd1.tor-rc.space
hd-films-2020.zetflix-biz-l.site
ltlost.info
jaroslavl.soski.org
www.dinafem.org
netflix.zhd.life
mbkcentre.pro
www.1goodbkmbet.win
vegasotzyv.org
darkmarket.at
5.tvmovies.in
osagoblank.co
tbdpucug.top
gm-s1ots.biz
vulkanaggupcasino.info
mostbbat68.xyz
pornorus.biz
refpaylioc.top
startmbetbest.top
mirror110.graniru.info
vulkanwyaupcasino.info
novoezerkalo7.info
old.sharepoint.hdreactor.club
rus-winners.club
igrovye-avtomaty-online.top
archive.li
moosttbetxcl3.xyz
velikiy-novgorod.
naturicagroup.hu
a.auth-ns.hdreactor.in
kazinoyota.info
mirror52.graniru.info
m12.kinocraft.co
rotaembetnews.site
www.nargismagazine.video.az
www.marathonwinners.win
www.kinokrad-hd.cyou
zerkalo.mirrorolimp2.online
refpazeeyl.top
sochi.xn--100-8cdezaygtayrlnf5ab7nsa.xn--p1ai
tw.hdseria.vip
mrbitkazino.info
twist-slots.org
vid1569621449.tehranvd.biz
hd-720.zfilm-hd1.club
b5.skladchik.biz
fs.hdreactor.club
moosttbet0xcl35.xyz
azartmaniya.biz
refparqpmm.top
720.gov-bqn-h.top
carding.store
mostopsbetr69c.xyz
www.onlinebingo.eu
sangu.ge
refpakizjh.top
slotsjackpots.co
vulkandelux.co
market.privat-sale.club
www.sspatron-bebek.video.az
sanmedia.co
vcdn2.awmzone.pro
sexnsk.love
magazin.gidra-market.club
relaxmusic.video.az
www.center-club.top
mbetmararotate.win
codejunkie.co
55.xn--4-7sbbg5bweih.xn--p1ai
store.jira.hdreactor.club
kino-slovo.zfilm-hd-1983.online
refpadnftr.top
rakishev.news
hdgorod.site
mbetrotatehost.top
refpaqhdtf.top
refpadtuks.top
720-hd1.lost-films.site
hepatit.life
rotatemediamusical.win
rotatemediatheater.win
vulkan-bet.co
rotatemediaface.win
refpayeykeum.top
moosttbet030.xyz
s771806265.newtorrent.rip
rotatebookplay.win
www.nchelny.city
rotatecommunityplay.win
81.tvmovies.in
refpahmdbz.top
hd-megamult.zfilm-1080.cyou
golden.eye.video.az
dev.2019.hdreactor.in
black-white-casino.tk
moosttbet0xcl38.xyz
casinoservice.org
mostbbat77.xyz
enrive.org
refpazivkm.top
refpagmvsb.top
1spravki.co
rotaembethill.site
mbetrotateland.top
rotatepolicyplay.win
www.preziti.cz
www.helix.video.az
pool10bonus.info
v40.hdreactor.club
10.hdhouse.club
sbd810.hdreactor.club
katcr.co
mbetrotateplaywith.top
rtor.tech
cinema5.gov-bdj-o.top
spravki-shop.biz
shop.cpanel.hdreactor.in
ekaterinburg-online-snus.site
sw1.kinogo.live
va-bank.by
griffiny.zfilm-hd.icu
casino-vulcan.club
rutorc6mqdinc4cz.onion.pet
rembetplayluck.top
s2956876544.protorrent.pro
casinobester.space
tubeaze.video.az
refpanwigw.top
besplatno.igrovoy-avtomat.top
www.casinobonusonline.ca
hdd-720-free.zhd.life
rotabmbetfind.top
vid1569201111671.tehranvd.biz
kinofilmy.space
s.nskxxx.club
file11.zhykrecords.biz
fixxo24.biz
refpaegimx.top
topigr.info
video.azontv.video.az
kinogo.theproxy.vip
yummyanime.club
hd.lordsfilms.top
popmediaplay.win
hdd-720-free.hd-lostfilm.site
hdrezka.hd-lostfilm.site
6556.svetacdn.in
www.libertyslots.eu
newdelux.club
www.diaepora.video.az
vedomosti.zfilm-1080.cyou
silvan3z4lm6wvyc.onion.to
100pudov.kg
mbetrotatereturn.top
films3.club
upcasinooloazino888.info
163.
azerireords.video.az
1xbet.zagonka-2152.site
www.youtubelite.mohammediatechnologies.in
o.fastworks.top
fooo.lordsfilms-1080.top
demo.sp.hdreactor.club
v29.hdreactor.in
warka.flagma.pl
www.playolg.ca
superdatabase.info
moosttbet0xcl10.xyz
refpascxfc.top
vtop.film-fan.site
mytube.one
www.casinokingdom.eu
www.islam-video.video.az
downtonabbeyserial.kinogo-hd.icu
xn----8sbekc3cipe1a.space
ultradox.top
no-gos.info
bezdepozita.club
w2.mdc.promo
sr.hdreactor.club
scorembetbest.top
sbd273.hdreactor.club
mostbeta.xyz
kinovremy.online
sven24.biz.klad24.store
sexotdam-nv.club
1080-lostfilm.hd-lostfilm.site
hd-lamafilm.hd-zfilm.cyou
secure.hdreactor.in
www.23.hdreactor.in
lord6.videocdn.ca
fullhd.lordfilms-720.monster
reallifecam.monster
rotateairlineplay.win
mbetflitplay.top
vulkangrand.co
krasnodar.xn----otbfohobeg7gza.xn--p1ai
rabotadropom.top
hd-mediasat.zfilm-hd-731.cyou
www.gov-bxd-q.top
mosttbetfanm3.xyz
rotaambetopen.top
refpayipsd.top
ctm-videodoc.press
yeahew.top
huyamba.lostfilm-hd-1450.site
novokuzneck-snus-kupit.site
air.filmhd1080.cyou
extasy.ws
globalkniga.live
alkodelivery96.xyz
k1.v-torrent.club
brghb.atelier-equestre-accueil.info
hdtrailers.video.az
www.wgrane.pl
www.lokbaton.video.az
formbetplayluck.top
refparyytm.top
rotabmbetbattle.top
rotatemediacomedy.win
hd-hd-tv.kinokrad-hd.top
zytel.rosfirm.info
baku.video
spravkina.biz
seasonwar.pp.ua
www.e-burg.info
smolensk.
hd-skachat-torrents.hd-zfilm.cyou
modembet.win
n7.kinoffond.us
www.maruroku.jp
v8.hdhouse.club
93.125.31.162
www.vip-zona.biz
lis146.ga
demotywatory.pl
sbd939.hdreactor.club
1-xsport.xyz
lenkayoga.cz
lindarevista.es
mzansi.porn
www.kurtlar-vadizsi-pusu.video.az
www.portbox.video.az
mbetplaywinnew.top
www.merhamwet.video.az
777win.club
xn--3-9sbdy1aarccvh.xn--p1acf
refpasvyvp.top
rotagmbetbliss.site
kurtlar-vadisi.pusu.video.az
maraibanner.win
diplomans-shop.top
soccer.web.betsbc.space
refpalrtlm.top
kurdamirtv.video.az
rotatemediainclude.win
www.btmulu5.live
refpahtzzt.top
www.od.video.az
v24.hdreactor.in
v.hdreactor.club
hd-dc.zfilm-hd-731.cyou
volgograd-online-snus.site
www.dnp.inf.ua
www.kurtlar-vadisio-pusu.video.az
megamult.hd-lostfilm.site
archive.apologetika.eu
jetli.filmleri.video.az
refpafbvfh.top
serial.zfilm-hd-1149.online
kazinoqiwi.info
xcosino.org
dnews.hdreactor.in
wqbrs.top
aotst.top
www.starcasino.be
rutor.unblockweb.biz
ambarcinema.gov-bac-t.top
simpsons-fan.zfilm-hd.site
olddrji.lbp.world
blog.blog.test.community.hdreactor.in
casino-vulkan.biz
b.hdreactor.club
federico-fellini.hd-lostfilm.site
www.k8qb.video.az
78.tvmovies.in
casino-fortuna.club
lordfilms-s.baskino-1207.site
mosttbet044.xyz
zarenreich.ws
cinematext.zagonka-1230.site
kino-vertikal.gov-bac-t.top
x13.czx.to
stavkabet.biz
tv.lordfilms.one
angelbags.club
truenorthmarketing.ca
dev.2.hdreactor.in
argocasino.bet
peaky-blinders.video.az
38y776.pro
mosttbetxcl14.xyz
torrentss.okah.top
deluxe-new.club
rotabmbetbring.top
uno.win-now.co
va-bank.in
chasemediaplay.win
rotabmbetspeak.top
moneyr.club
rotatembetbecome.win
sex2.sexoperm.sex
vulkan-club.top
bryansk1.prostitutki.store
mostbetprilend10.xyz
ch.online24na7.info
stoletie.in.ua
etc.game-bonuses.club
szcpc.xyz
zoosexporn.pet
refpaxeoij.top
hd-limehd.vseseriipodriad-l.site
lszly.site
vcesprawki.co
ns1.beloptel.by
spravka-online.co
admiralcasino.pro
ae-online.lordfilms-s.biz
admiral-casino.in
individualki-nizhnego-novgoroda.top
www.himymarathon.win
hd-love.zfilm-hd-2474.online
xn--s-7sblbdf1b0b.new-rutor.org
mbetrotatefeel.top
www.dietbits.gr
zfilm-online-8.site
xn--1-itb.hdreactor.club
superslot777p.info
rotatemediagoal.win
www.marabettinglike.win
ru.pornosveta.click
alwaqiyah.zat.one
www.rave.ca
grand-kazino-online.website
vulkanzercalogood.info
refpaqtawi.top
photocodeathome.info
neodimof8.club
guteli.info
mbetrotateknow.top
mosttbetxcl32.xyz
rotatembetmeet.win
gidonline.kinomatix-1080.buzz
videos.tube
live-ufc.stream
dahserial.gov-bac-t.top
balashiha-online-snus.site
oi.hdreactor.club
www.respublika-dagestan-tut.bez-avtoshkoly.site
cinema-kinohd.bid
luckyrc.biz
tohue.site
www.inflo.torrent.rus.ec
ifud.ws
komagatamarujourney.ca
720-720.newserial-666.site
kz.xasia.info
irkutsk-sweet-snus.site
super88.club
rotatemediagoout.win
shop.xn--80aakd8ad1a4a.xn--p1ai
muhtesem-yuzyil.video.az
refpanealb.top
danbooru.donmai.us
refpakyqqh.top
m1.skladchina.biz
shop.4.hdreactor.in
zon.lordfilmtv.cyou
mbetrotatepay.top
refpavszen.top
tt.inf.ua
xn--d1aa.hdreactor.club
air.pm-726.info
f4.kinoxa.biz
test.1.hdreactor.club
kinogo.unblock.pink
confl.hdreactor.club
ru.redtube.fyi
rijght.top
hdbosse.online
www.yesmarathonbetgo.win
spacejam.video.az
setwalls.biz
snus-kupit-tver.site
refparbglj.top
vipfanta-biz.awse.city
rotabmbetdance.top
3tuza.info
mailhack.site
dr-phill.website
1080-hd-720.pumafilm-720.top
mbetrotatepull.top
hdserial.live
russkoekino.lamafilm.top
www.betcoin.tm
agencyki.top
t.fastworks.top
www.zenitbet84.win
belayacasino.info
sex.porno.video.az
maidan-kiev.in.ua
hot.video.az
s5.hdmore.fun
sports-betting.top
www.mesina.video.az
gidonline.lostfilm-hd-350.site
rotacmbetbattle.site
kazinorostov.info
refpagaqff.top
filmosalo.tk
s1.hdba.site
kinogo.baskino-2531.site
rotabmbetmovie.top
moosttbet00.xyz
mbetrotatearrive.top
refpamlyqu.space
rotaembetlock.site
www.true-detectivem.video.az
rotatembetdefeat.win
flitmediaplay.win
rotacmbetword.site
2007.tvmovies.in
mosttbeet020.xyz
kinogo.lostfilm-hd-3420.online
www.allpro.eu
refpakwjoa.top
puaro-online.zagonka-1835.site
rotabmbetouting.top
paritraff.website
rotacmbetaverage.site
turokserial.live
h5.x-film.top
solr.hdreactor.club
mostbbat12.xyz
moosttbet0xcl12.xyz
refpazsvgr.top
upcasinoejwvulkan777.info
azino777q.info
mbetrotateadd.top
demo.s.hdreactor.in
ch640.club
newseries.kinokrad-hd.top
blog.blog.test.cz.hdreactor.in
mirror128.graniru.info
refpazbgvf.top
semerka1.club
newserial.zfilm-hd-1486.online
www.kuaey-guney.video.az
fitgirl-repacks.site
hdboss.co
refpaqqmcs.top
full-hd.lamafilm.top
mindfraim.co.za
web-skazki.zfilm-hd-1287.club
refpanrphx.top
refpalebkc.top
shjrka-bomba.site
gepatit.cf
kinosimka.unblocked2.top
www.gost24.biz
39.tvmovies.in
hind.hd.video.az
pirat4.iglou.biz
moo12stoprilland.xyz
miraida.us
kino-ussr.lostfilm-hd-2470.site
pornobomba.live
doctorfarm.website
jutelu.info
blog.mta-sts.hdreactor.club
partnermbet.win
ideafilm.video
erodouzip.blog.jp
refpaimilk.top
topigr.guru
egoryevsk.dosug.store
hit.kinoteka.life
