87.240.169.9 sun9-86.userapi.com
95.142.205.117 cs1-69v4.vkuseraudio.net
95.142.204.151 sun1-95.userapi.com
95.142.204.186 sun1-92.userapi.com
95.142.204.190 sun1-13.userapi.com
95.142.204.162 sun1-87.userapi.com
95.142.204.160 sun1-85.userapi.com
93.186.227.158 sun9-75.userapi.com
87.240.185.166 sun9-67.userapi.com
95.142.204.171 sun1-25.userapi.com
95.142.204.175 sun1-16.userapi.com
217.20.152.213 i.mycdn.me
94.100.180.197 ad.mail.ru <<<<<<<<<NOT LISTED!>>>>>>>>>
87.240.185.162 sun9-63.userapi.com
87.240.169.10 sun9-87.userapi.com
95.142.204.158 sun1-22.userapi.com
93.186.227.136 sun9-25.userapi.com
87.240.169.0 sun9-77.userapi.com
93.186.227.153 sun9-58.userapi.com
95.142.204.159 sun1-21.userapi.com
87.240.190.75 api.vk.com
95.142.204.157 sun1-23.userapi.com
95.142.204.187 sun1-93.userapi.com
87.240.169.2 sun9-79.userapi.com
87.240.185.155 sun9-52.userapi.com
87.240.185.131 sun9-4.userapi.com
87.240.185.132 sun9-5.userapi.com
93.186.227.147 sun9-36.userapi.com
95.142.204.166 sun1-29.userapi.com
87.240.185.148 sun9-45.userapi.com
87.240.185.159 sun9-56.userapi.com
95.142.204.181 sun1-18.userapi.com
87.240.185.156 sun9-53.userapi.com
87.240.190.74 pu.vk.com
87.240.185.139 sun9-12.userapi.com
87.240.185.161 sun9-62.userapi.com
87.240.185.171 sun9-72.userapi.com
95.142.204.189 sun1-47.userapi.com
217.20.147.5 api.ok.ru
87.240.185.150 sun9-47.userapi.com
87.240.185.152 sun9-49.userapi.com
87.240.185.144 sun9-37.userapi.com
95.142.204.165 sun1-28.userapi.com
95.142.204.173 sun1-27.userapi.com
93.186.227.151 sun9-44.userapi.com
95.142.204.177 sun1-55.userapi.com
87.240.185.140 sun9-13.userapi.com
95.142.204.169 sun1-84.userapi.com
94.100.180.72 r3.mail.ru <<<<<<<<<NOT LISTED!>>>>>>>>>
95.142.204.154 st1-98.vk.com
95.142.204.152 sun1-96.userapi.com
87.240.169.6 sun9-83.userapi.com
87.240.185.129 sun9-2.userapi.com
93.186.227.142 sun9-31.userapi.com
95.142.204.164 sun1-89.userapi.com
sun1-90.userapi.com _________NO IP!_________
45.136.22.136 vkvd46.mycdn.me
87.240.185.158 sun9-55.userapi.com
93.186.227.128 sun9-17.userapi.com
87.240.185.167 sun9-68.userapi.com
45.136.21.199 vkvd200.mycdn.me
vkvd77.mycdn.me _________NO IP!_________
87.240.185.147 sun9-40.userapi.com
93.186.227.154 sun9-59.userapi.com
87.240.169.1 sun9-78.userapi.com
87.240.169.3 sun9-80.userapi.com
95.142.204.180 sun1-17.userapi.com
93.186.227.134 sun9-23.userapi.com
93.186.227.149 sun9-42.userapi.com
93.186.227.148 sun9-41.userapi.com
95.142.204.182 sun1-19.userapi.com
87.240.185.160 sun9-61.userapi.com
95.142.204.156 sun1-24.userapi.com
64.233.164.94 www.gstatic.com <<<<<<<<<NOT LISTED!>>>>>>>>>
93.186.227.132 sun9-21.userapi.com
93.186.227.133 sun9-22.userapi.com
87.240.169.11 sun9-88.userapi.com
87.240.185.169 sun9-70.userapi.com
87.240.169.4 sun9-81.userapi.com
87.240.185.142 sun9-15.userapi.com
95.142.204.179 sun1-57.userapi.com
95.142.204.155 sun1-99.userapi.com
sun1-25.userapi.com _________NO IP!_________
93.186.227.131 sun9-20.userapi.com
93.186.227.138 sun9-27.userapi.com
87.240.185.136 sun9-9.userapi.com
217.69.133.33 vk.go.mail.ru <<<<<<<<<NOT LISTED!>>>>>>>>>
87.240.185.141 sun9-14.userapi.com
93.186.227.141 sun9-30.userapi.com
87.240.185.135 sun9-8.userapi.com
87.240.185.157 sun9-54.userapi.com
172.217.21.166 ad.doubleclick.net <<<<<<<<<NOT LISTED!>>>>>>>>>
93.186.227.144 sun9-33.userapi.com
95.142.204.153 sun1-97.userapi.com
87.250.251.134 enterprise.api-maps.yandex.ru <<<<<<<<<NOT LISTED!>>>>>>>>>
93.186.227.159 sun9-76.userapi.com
sun1-55.userapi.com _________NO IP!_________
87.240.169.5 sun9-82.userapi.com
87.240.137.158 vk.com
87.240.185.146 sun9-39.userapi.com
45.136.21.138 vkvd136.mycdn.me
87.250.251.89 core-renderer-tiles.maps.yandex.net <<<<<<<<<NOT LISTED!>>>>>>>>>
87.240.185.192 cs9-1v4.vkuseraudio.net
95.142.204.168 sun1-83.userapi.com
185.226.53.200 vkvd209.mycdn.me
87.240.185.153 sun9-50.userapi.com
93.186.227.152 sun9-57.userapi.com
217.69.133.145 top-fwz1.mail.ru <<<<<<<<<NOT LISTED!>>>>>>>>>
87.240.185.163 sun9-64.userapi.com
93.186.227.156 sun9-73.userapi.com
87.240.129.132 stats.vk-portal.net
93.186.227.139 sun9-28.userapi.com
95.142.204.170 sun1-14.userapi.com
178.154.131.216 yastatic.net <<<<<<<<<NOT LISTED!>>>>>>>>>
87.240.185.130 sun9-3.userapi.com
95.142.204.185 sun1-91.userapi.com
93.186.227.143 sun9-32.userapi.com
93.186.227.129 sun9-18.userapi.com
93.186.227.157 sun9-74.userapi.com
95.142.204.176 sun1-54.userapi.com
87.240.185.149 sun9-46.userapi.com
95.142.204.188 sun1-94.userapi.com
87.240.185.170 sun9-71.userapi.com
87.240.169.7 sun9-84.userapi.com
93.186.227.140 sun9-29.userapi.com
95.142.204.167 sun1-30.userapi.com
87.240.185.165 sun9-66.userapi.com
95.142.204.161 sun1-86.userapi.com
queuev4.vk.com _________NO IP!_________
93.186.227.146 sun9-35.userapi.com
95.142.204.183 sun1-20.userapi.com
95.142.204.163 sun1-88.userapi.com
sun1-27.userapi.com _________NO IP!_________
93.186.227.145 sun9-34.userapi.com
93.186.226.72 api.vk.com
87.240.129.186 im.vk.com
87.240.185.133 sun9-6.userapi.com
185.226.53.171 vkvd127.mycdn.me
95.142.204.174 sun1-15.userapi.com
93.186.227.155 sun9-60.userapi.com
87.240.129.131 queuev4.vk.com
93.186.227.135 sun9-24.userapi.com
93.186.227.137 sun9-26.userapi.com
87.240.185.164 sun9-65.userapi.com
95.142.204.172 sun1-26.userapi.com
87.240.185.168 sun9-69.userapi.com
87.240.185.134 sun9-7.userapi.com
87.240.169.8 sun9-85.userapi.com
87.240.185.137 sun9-10.userapi.com
95.142.204.184 sun1-90.userapi.com
87.240.185.143 sun9-16.userapi.com
95.142.204.178 sun1-56.userapi.com
94.100.180.197 trk.mail.ru <<<<<<<<<NOT LISTED!>>>>>>>>>
95.142.204.154 sun1-98.userapi.com
194.226.130.226 www.tns-counter.ru <<<<<<<<<NOT LISTED!>>>>>>>>>
93.186.227.150 sun9-43.userapi.com
87.240.129.135 login.vk.com
93.186.227.130 sun9-19.userapi.com
87.240.185.151 sun9-48.userapi.com
